<?xml version="1.0" encoding="UTF-8"?>
<testng-results skipped="0" failed="0" ignored="0" total="2" passed="2">
  <reporter-output>
  </reporter-output>
  <suite name="Command line suite" duration-ms="17587" started-at="2018-10-24T13:53:39Z" finished-at="2018-10-24T13:53:56Z">
    <groups>
    </groups>
    <test name="Command line test" duration-ms="17587" started-at="2018-10-24T13:53:39Z" finished-at="2018-10-24T13:53:56Z">
      <class name="TestRunner.TestRunnerCFG2">
        <test-method status="PASS" signature="setUP()[pri:0, instance:TestRunner.TestRunnerCFG2@1810399e]" name="setUP" is-config="true" duration-ms="29" started-at="2018-10-24T13:53:48Z" finished-at="2018-10-24T13:53:48Z">
          <reporter-output>
          </reporter-output>
        </test-method> <!-- setUP -->
        <test-method status="PASS" signature="login(cucumber.api.testng.CucumberFeatureWrapper)[pri:0, instance:TestRunner.TestRunnerCFG2@1810399e]" name="login" duration-ms="8037" started-at="2018-10-24T13:53:48Z" description="login" data-provider="features" finished-at="2018-10-24T13:53:56Z">
          <params>
            <param index="0">
              <value>
                <![CDATA[Sgate]]>
              </value>
            </param>
          </params>
          <reporter-output>
          </reporter-output>
        </test-method> <!-- login -->
        <test-method status="PASS" signature="tearDown()[pri:0, instance:TestRunner.TestRunnerCFG2@1810399e]" name="tearDown" is-config="true" duration-ms="56" started-at="2018-10-24T13:53:56Z" finished-at="2018-10-24T13:53:56Z">
          <reporter-output>
          </reporter-output>
        </test-method> <!-- tearDown -->
      </class> <!-- TestRunner.TestRunnerCFG2 -->
      <class name="TestRunner.TestRunnerCFG">
        <test-method status="PASS" signature="setUP()[pri:0, instance:TestRunner.TestRunnerCFG@5f375618]" name="setUP" is-config="true" duration-ms="356" started-at="2018-10-24T13:53:39Z" finished-at="2018-10-24T13:53:39Z">
          <reporter-output>
          </reporter-output>
        </test-method> <!-- setUP -->
        <test-method status="PASS" signature="login(cucumber.api.testng.CucumberFeatureWrapper)[pri:0, instance:TestRunner.TestRunnerCFG@5f375618]" name="login" duration-ms="8785" started-at="2018-10-24T13:53:39Z" description="login" data-provider="features" finished-at="2018-10-24T13:53:48Z">
          <params>
            <param index="0">
              <value>
                <![CDATA[Sgate]]>
              </value>
            </param>
          </params>
          <reporter-output>
          </reporter-output>
        </test-method> <!-- login -->
        <test-method status="PASS" signature="tearDown()[pri:0, instance:TestRunner.TestRunnerCFG@5f375618]" name="tearDown" is-config="true" duration-ms="190" started-at="2018-10-24T13:53:48Z" finished-at="2018-10-24T13:53:48Z">
          <reporter-output>
          </reporter-output>
        </test-method> <!-- tearDown -->
      </class> <!-- TestRunner.TestRunnerCFG -->
    </test> <!-- Command line test -->
  </suite> <!-- Command line suite -->
</testng-results>
